>> opt_pricer_pc_end

E =

    0.0400         0
         0    0.0400


dnew =

    1.0382    0.9809    0.9809
    1.0000    1.0331    0.9669


callmaxK =

    1.5496


callminK =

    0.0867


pminK =

    8.5273


pmaxK =

    3.1090


ans =

    '      ANALYTICL_SOL=1.54955502775205999910'


ans =

    ' INIT_SHARE{1} (hex) = 406097fb266e7b67'


ans =

    ' INIT_SHARE{2} (hex) = 4044000000000280'


ans =

    ' MULT_COEFF{1} (hex) = 3fd554af751c3a29'


ans =

    ' MULT_COEFF{2} (hex) = 3fd555a901d6ad85'


ans =

    ' MULT_COEFF{3} (hex) = 3fd555a7890d1852'


ans =

    '     STRIKE{1} (hex) = 4046800000000000'


ans =

    '     STRIKE{2} (hex) = 4046800000000000'


ans =

    '       MAX_MIN (bin) = 0'


ans =

    '          CASH (hex) = 0000000000000000'


ans =

    '    NUM_LAYERS (bin) = 000000000100000'


ans =

    'SHARE_COEFF{1} (hex) = 3feed29760100235'


ans =

    'SHARE_COEFF{2} (hex) = 3fefffffffffffe0'


ans =

    '  INIT_STEP{1} (hex) = 3fee3be9edad2f21'


ans =

    '  INIT_STEP{2} (hex) = 3ff0877baac967ff'


ans =

    '  INIT_STEP{3} (hex) = 3ff0000000000000'


ans =

    '  INIT_STEP{4} (hex) = 3fedf36b3fd545a1'


ans =

    '  INIT_STEP_NEXT{1} (hex) = 3feed29760100235'


ans =

    '  INIT_STEP_NEXT{2} (hex) = 3fefffffffffffe0'

>> 
